<?xml version="1.0" encoding="UTF-8" standalone="no"?>
<!-- Created with Inkscape (http://www.inkscape.org/) -->

<svg
   xmlns:dc="http://purl.org/dc/elements/1.1/"
   xmlns:cc="http://creativecommons.org/ns#"
   xmlns:rdf="http://www.w3.org/1999/02/22-rdf-syntax-ns#"
   xmlns:svg="http://www.w3.org/2000/svg"
   xmlns="http://www.w3.org/2000/svg"
   xmlns:sodipodi="http://sodipodi.sourceforge.net/DTD/sodipodi-0.dtd"
   xmlns:inkscape="http://www.inkscape.org/namespaces/inkscape"
   width="114.42055mm"
   height="54.191154mm"
   viewBox="0 0 114.42055 54.191154"
   version="1.1"
   id="svg906"
   inkscape:version="0.92.4 (5da689c313, 2019-01-14)"
   sodipodi:docname="angles.svg"
   inkscape:export-filename="/home/mrenda/research/boltz/betaboltz/doc/technotes/img/angles.png"
   inkscape:export-xdpi="150"
   inkscape:export-ydpi="150">
  <defs
     id="defs900">
    <inkscape:path-effect
       effect="bspline"
       id="path-effect1815"
       is_visible="true"
       weight="33.333333"
       steps="2"
       helper_size="0"
       apply_no_weight="true"
       apply_with_weight="true"
       only_selected="false" />
    <marker
       inkscape:stockid="Arrow1Lstart"
       orient="auto"
       refY="0"
       refX="0"
       id="Arrow1Lstart"
       style="overflow:visible"
       inkscape:isstock="true">
      <path
         id="path1495"
         d="M 0,0 5,-5 -12.5,0 5,5 Z"
         style="fill:#000000;fill-opacity:1;fill-rule:evenodd;stroke:#000000;stroke-width:1.00000003pt;stroke-opacity:1"
         transform="matrix(0.8,0,0,0.8,10,0)"
         inkscape:connector-curvature="0" />
    </marker>
    <marker
       inkscape:stockid="Arrow1Lend"
       orient="auto"
       refY="0"
       refX="0"
       id="Arrow1Lend"
       style="overflow:visible"
       inkscape:isstock="true">
      <path
         id="path1498"
         d="M 0,0 5,-5 -12.5,0 5,5 Z"
         style="fill:#000000;fill-opacity:1;fill-rule:evenodd;stroke:#000000;stroke-width:1.00000003pt;stroke-opacity:1"
         transform="matrix(-0.8,0,0,-0.8,-10,0)"
         inkscape:connector-curvature="0" />
    </marker>
  </defs>
  <sodipodi:namedview
     id="base"
     pagecolor="#ffffff"
     bordercolor="#666666"
     borderopacity="1.0"
     inkscape:pageopacity="0.0"
     inkscape:pageshadow="2"
     inkscape:zoom="1.979899"
     inkscape:cx="199.29544"
     inkscape:cy="163.34812"
     inkscape:document-units="mm"
     inkscape:current-layer="layer1"
     showgrid="false"
     inkscape:window-width="1920"
     inkscape:window-height="997"
     inkscape:window-x="0"
     inkscape:window-y="27"
     inkscape:window-maximized="1"
     fit-margin-top="0"
     fit-margin-left="0"
     fit-margin-right="0"
     fit-margin-bottom="0" />
  <metadata
     id="metadata903">
    <rdf:RDF>
      <cc:Work
         rdf:about="">
        <dc:format>image/svg+xml</dc:format>
        <dc:type
           rdf:resource="http://purl.org/dc/dcmitype/StillImage" />
        <dc:title></dc:title>
      </cc:Work>
    </rdf:RDF>
  </metadata>
  <g
     inkscape:label="Layer 1"
     inkscape:groupmode="layer"
     id="layer1"
     transform="translate(-44.809587,-39.823706)">
    <path
       style="fill:none;stroke:#000000;stroke-width:0.5;stroke-linecap:butt;stroke-linejoin:miter;stroke-miterlimit:4;stroke-dasharray:none;stroke-opacity:1"
       d="M 44.901281,85.055264 H 127.75483 L 158.28122,40.354772 Z"
       id="path1451"
       inkscape:connector-curvature="0"
       sodipodi:nodetypes="cccc" />
    <text
       xml:space="preserve"
       style="font-style:normal;font-weight:normal;font-size:7.05555534px;line-height:1.25;font-family:sans-serif;letter-spacing:0px;word-spacing:0px;fill:#d40000;fill-opacity:1;stroke:none;stroke-width:0.26458332"
       x="84.991707"
       y="92.538811"
       id="text1455"><tspan
         sodipodi:role="line"
         id="tspan1453"
         x="84.991707"
         y="92.538811"
         style="fill:#d40000;stroke-width:0.26458332">V<tspan
   style="font-size:64.99999762%;baseline-shift:sub;fill:#d40000"
   id="tspan1484">com</tspan></tspan></text>
    <text
       xml:space="preserve"
       style="font-style:normal;font-weight:normal;font-size:7.05555534px;line-height:1.25;font-family:sans-serif;letter-spacing:0px;word-spacing:0px;fill:#000000;fill-opacity:1;stroke:none;stroke-width:0.26458332"
       x="70.899902"
       y="68.180138"
       id="text1455-3"><tspan
         sodipodi:role="line"
         id="tspan1453-6"
         x="70.899902"
         y="68.180138"
         style="stroke-width:0.26458332">V<tspan
   style="font-size:64.99999762%;baseline-shift:sub"
   id="tspan1486">lab</tspan></tspan></text>
    <text
       xml:space="preserve"
       style="font-style:normal;font-weight:normal;line-height:1.25;font-family:sans-serif;letter-spacing:0px;word-spacing:0px;baseline-shift:baseline;fill:#000000;fill-opacity:1;stroke:none;stroke-width:0.26458332"
       x="146.774"
       y="67.714973"
       id="text1482"><tspan
         sodipodi:role="line"
         id="tspan1480"
         x="146.774"
         y="67.714973"
         style="font-size:7.05555534px;baseline-shift:baseline;stroke-width:0.26458332">u</tspan></text>
    <path
       sodipodi:type="star"
       style="fill:#d40000;fill-opacity:1;stroke:#000000;stroke-width:0.26499999;stroke-miterlimit:4;stroke-dasharray:none"
       id="path1817"
       sodipodi:sides="3"
       sodipodi:cx="126.15121"
       sodipodi:cy="85.055267"
       sodipodi:r1="1.6036172"
       sodipodi:r2="0.80180854"
       sodipodi:arg1="0"
       sodipodi:arg2="1.0471976"
       inkscape:flatsided="false"
       inkscape:rounded="0"
       inkscape:randomized="0"
       d="m 127.75482,85.055267 -1.20271,0.694387 -1.20271,0.694387 0,-1.388774 0,-1.388773 1.20271,0.694387 z"
       inkscape:transform-center-x="-0.40090363"
       transform="matrix(1,0,0,0.51010449,0,41.819381)" />
    <path
       sodipodi:type="star"
       style="fill:#d40000;fill-opacity:1;stroke:#000000;stroke-width:0.35003415;stroke-miterlimit:4;stroke-dasharray:none"
       id="path1817-9"
       sodipodi:sides="3"
       sodipodi:cx="126.15121"
       sodipodi:cy="85.055267"
       sodipodi:r1="1.6036172"
       sodipodi:r2="0.80180854"
       sodipodi:arg1="0"
       sodipodi:arg2="1.0471976"
       inkscape:flatsided="false"
       inkscape:rounded="0"
       inkscape:randomized="0"
       d="m 127.75482,85.055267 -1.20271,0.694387 -1.20271,0.694387 0,-1.388774 0,-1.388773 1.20271,0.694387 z"
       inkscape:transform-center-x="0.033709152"
       transform="matrix(0.61357692,-0.78963495,0.40279635,0.31298835,45.388653,114.6489)"
       inkscape:transform-center-y="-0.099234769" />
    <path
       sodipodi:type="star"
       style="fill:#d40000;fill-opacity:1;stroke:#000000;stroke-width:0.35003415;stroke-miterlimit:4;stroke-dasharray:none"
       id="path1817-9-3"
       sodipodi:sides="3"
       sodipodi:cx="126.15121"
       sodipodi:cy="85.055267"
       sodipodi:r1="1.6036172"
       sodipodi:r2="0.80180854"
       sodipodi:arg1="0"
       sodipodi:arg2="1.0471976"
       inkscape:flatsided="false"
       inkscape:rounded="0"
       inkscape:randomized="0"
       d="m 127.75482,85.055267 -1.20271,0.694387 -1.20271,0.694387 0,-1.388774 0,-1.388773 1.20271,0.694387 z"
       inkscape:transform-center-x="-0.26379834"
       transform="matrix(0.94555348,-0.32546678,0.16602208,0.48233109,23.12453,40.957686)"
       inkscape:transform-center-y="0.20443848" />
    <text
       xml:space="preserve"
       style="font-style:normal;font-weight:normal;font-size:7.05555534px;line-height:1.25;font-family:sans-serif;letter-spacing:0px;word-spacing:0px;fill:#000000;fill-opacity:1;stroke:none;stroke-width:0.26458332"
       x="74.50296"
       y="81.009079"
       id="text1455-3-1"><tspan
         sodipodi:role="line"
         id="tspan1453-6-4"
         x="74.50296"
         y="81.009079"
         style="stroke-width:0.26458332">𝛳 𝛷</tspan></text>
    <text
       xml:space="preserve"
       style="font-style:normal;font-weight:normal;font-size:7.05555534px;line-height:1.25;font-family:sans-serif;letter-spacing:0px;word-spacing:0px;fill:#000000;fill-opacity:1;stroke:none;stroke-width:0.26458332"
       x="146.47539"
       y="78.381195"
       id="text1455-3-1-7"><tspan
         sodipodi:role="line"
         id="tspan1453-6-4-3"
         x="146.47539"
         y="78.381195"
         style="stroke-width:0.26458332">𝜗 𝜙</tspan></text>
  </g>
</svg>
