<?xml version="1.0" encoding="UTF-8" standalone="no"?>
<!-- Created with Inkscape (http://www.inkscape.org/) -->

<svg
   xmlns:osb="http://www.openswatchbook.org/uri/2009/osb"
   xmlns:dc="http://purl.org/dc/elements/1.1/"
   xmlns:cc="http://creativecommons.org/ns#"
   xmlns:rdf="http://www.w3.org/1999/02/22-rdf-syntax-ns#"
   xmlns:svg="http://www.w3.org/2000/svg"
   xmlns="http://www.w3.org/2000/svg"
   xmlns:sodipodi="http://sodipodi.sourceforge.net/DTD/sodipodi-0.dtd"
   xmlns:inkscape="http://www.inkscape.org/namespaces/inkscape"
   width="95.444351mm"
   height="95.444351mm"
   viewBox="0 0 95.444351 95.444351"
   version="1.1"
   id="svg8"
   inkscape:version="0.92.1 r15371"
   sodipodi:docname="logo.svg">
  <defs
     id="defs2">
    <linearGradient
       id="linearGradient4746"
       osb:paint="solid">
      <stop
         style="stop-color:#afe9dd;stop-opacity:1;"
         offset="0"
         id="stop4744" />
    </linearGradient>
  </defs>
  <sodipodi:namedview
     id="base"
     pagecolor="#ffffff"
     bordercolor="#666666"
     borderopacity="1.0"
     inkscape:pageopacity="0.0"
     inkscape:pageshadow="2"
     inkscape:zoom="0.7"
     inkscape:cx="220.66016"
     inkscape:cy="611.2882"
     inkscape:document-units="mm"
     inkscape:current-layer="layer1"
     showgrid="false"
     inkscape:window-width="2560"
     inkscape:window-height="1349"
     inkscape:window-x="0"
     inkscape:window-y="31"
     inkscape:window-maximized="1"
     fit-margin-top="0"
     fit-margin-left="0"
     fit-margin-right="0"
     fit-margin-bottom="0" />
  <metadata
     id="metadata5">
    <rdf:RDF>
      <cc:Work
         rdf:about="">
        <dc:format>image/svg+xml</dc:format>
        <dc:type
           rdf:resource="http://purl.org/dc/dcmitype/StillImage" />
        <dc:title></dc:title>
      </cc:Work>
    </rdf:RDF>
  </metadata>
  <g
     inkscape:label="Layer 1"
     inkscape:groupmode="layer"
     id="layer1"
     transform="translate(-30.140923,-127.94747)">
    <circle
       style="fill:#ffffff;fill-opacity:1;fill-rule:evenodd;stroke:#000000;stroke-width:0.25;stroke-linecap:round;stroke-linejoin:round;stroke-miterlimit:4;stroke-dasharray:none;stroke-dashoffset:0;stroke-opacity:1;paint-order:markers fill stroke"
       id="path4725"
       cx="77.863098"
       cy="175.66965"
       r="47.597176" />
    <path
       style="fill:#2274ac;fill-opacity:1;fill-rule:evenodd;stroke:#000000;stroke-width:0.25;stroke-linecap:round;stroke-linejoin:round;stroke-miterlimit:4;stroke-dasharray:none;stroke-dashoffset:0;stroke-opacity:1;paint-order:markers fill stroke"
       d="m 56.99874,138.94884 v 24.56852 h 0.0041 v 24.23212 a 24.568451,24.568451 0 0 0 -0.0041,0.0724 24.568451,24.568451 0 0 0 24.56646,24.56852 24.568451,24.568451 0 0 0 24.57062,-24.56852 24.568451,24.568451 0 0 0 -24.57062,-24.56801 24.568451,24.568451 0 0 0 -0.0078,0 24.568451,24.568451 0 0 0 -24.55866,-24.30498 z m 8.689392,11.53934 c 4.190989,2.91412 7.124324,7.72875 7.179407,12.85917 a 8.6909725,8.6909725 0 0 0 8.691459,8.59586 c 0.0021,-1e-5 0.0036,-1e-5 0.0057,0 a 8.6909725,8.6909725 0 0 0 0.0021,0 c 8.313845,3e-5 15.879105,7.56477 15.879134,15.87861 -2.9e-5,8.31385 -7.565289,15.8791 -15.879134,15.87914 -8.309207,-4e-5 -15.868596,-7.55683 -15.877076,-15.86518 a 8.6909725,8.6909725 0 0 0 0.0021,-0.0863 v -24.23212 a 8.6909725,8.6909725 0 0 0 -0.0036,-0.11162 z"
       id="path4485-2-3"
       inkscape:connector-curvature="0"
       inkscape:export-xdpi="206.75056"
       inkscape:export-ydpi="206.75056" />
  </g>
</svg>
